<svg width="4" height="20" viewBox="0 0 4 20" fill="none" xmlns="http://www.w3.org/2000/svg">
<path d="M3.5 19.0001H2.65561C2.01766 19.0001 1.5 18.4562 1.5 17.7859V2.21431C1.5 1.54402 2.01766 1.00012 2.65561 1.00012H3.2501" stroke="#00B8EA" stroke-width="1.1184" stroke-miterlimit="10"/>
</svg>
