<svg width="65" height="35" viewBox="0 0 65 35" fill="none" xmlns="http://www.w3.org/2000/svg">
<path fill-rule="evenodd" clip-rule="evenodd" d="M53.6127 32.7321H12.4769C9.99771 32.7321 7.90823 31.0634 7.27027 28.788H58.8194C58.1814 31.0634 56.092 32.7321 53.6127 32.7321ZM60.3263 28.788C59.6559 31.8792 56.9047 34.1948 53.6127 34.1948H12.4769C9.18492 34.1948 6.43376 31.8792 5.76337 28.788C5.66114 28.3166 5.6073 27.8272 5.6073 27.3252H60.4824C60.4824 27.8272 60.4285 28.3166 60.3263 28.788Z" fill="white"/>
<path fill-rule="evenodd" clip-rule="evenodd" d="M51.1705 1.46277H14.9191C13.5727 1.46277 12.4811 2.55428 12.4811 3.90072V27.3268H53.6084V3.90072C53.6084 2.55428 52.5169 1.46277 51.1705 1.46277ZM14.9191 0C12.7648 0 11.0184 1.74641 11.0184 3.90072V28.7896H55.0712V3.90072C55.0712 1.74641 53.3248 0 51.1705 0H14.9191Z" fill="white"/>
<path fill-rule="evenodd" clip-rule="evenodd" d="M27.0613 27.3268H38.9544V29.4356C38.9544 30.0801 38.7649 30.7204 38.3895 31.2347C38.0165 31.7459 37.3764 32.2228 36.528 32.2228H29.4799C28.6283 32.2228 27.9887 31.7425 27.6177 31.2284C27.2455 30.7127 27.0613 30.0741 27.0613 29.4356V27.3268ZM28.727 30.2523C28.5998 30.0274 28.5241 29.7439 28.5241 29.4356V28.7896H37.4916V29.4356C37.4916 29.7439 37.4144 30.0274 37.2856 30.2523C37.1086 30.5615 36.8339 30.76 36.528 30.76H29.4799C29.174 30.76 28.9019 30.5615 28.727 30.2523Z" fill="#57CDB1"/>
<path d="M29.67 11.4869C29.67 12.4766 28.8677 13.2789 27.8781 13.2789C26.8884 13.2789 26.0861 12.4766 26.0861 11.4869C26.0861 10.4972 26.8884 9.69492 27.8781 9.69492C28.8677 9.69492 29.67 10.4972 29.67 11.4869Z" fill="white"/>
<path d="M40.4232 11.4869C40.4232 12.4766 39.6209 13.2789 38.6312 13.2789C37.6415 13.2789 36.8392 12.4766 36.8392 11.4869C36.8392 10.4972 37.6415 9.69491 38.6312 9.69491C39.6209 9.69491 40.4232 10.4972 40.4232 11.4869Z" fill="white"/>
<path fill-rule="evenodd" clip-rule="evenodd" d="M33.2609 19.016C33.8227 19.016 34.3764 18.9149 34.8892 18.7209C35.402 18.527 35.8598 18.2457 36.2395 17.899C36.6189 17.5526 36.9121 17.1486 37.1092 16.714C37.3062 16.2798 37.4054 15.8199 37.4054 15.3591L38.8682 15.3591C38.8682 16.0314 38.7231 16.6972 38.4413 17.3183C38.1595 17.9395 37.7465 18.5039 37.2258 18.9793C36.7051 19.4547 36.087 19.8318 35.4067 20.0891C34.7264 20.3464 33.9972 20.4788 33.2609 20.4788C32.5245 20.4788 31.7954 20.3464 31.1151 20.0891C30.4347 19.8318 29.8166 19.4547 29.2959 18.9793C28.7752 18.5039 28.3622 17.9395 28.0804 17.3183C27.7986 16.6972 27.6536 16.0314 27.6536 15.3591L29.1164 15.3591C29.1164 15.8199 29.2156 16.2798 29.4125 16.714C29.6097 17.1486 29.9028 17.5526 30.2822 17.899C30.6619 18.2457 31.1197 18.527 31.6325 18.7209C32.1454 18.9149 32.6991 19.016 33.2609 19.016Z" fill="white"/>
<path fill-rule="evenodd" clip-rule="evenodd" d="M0 13.2786C0 13.6826 0.327453 14.01 0.731386 14.01H5.59145C5.99539 14.01 6.32284 13.6826 6.32284 13.2786C6.32284 12.8747 5.99539 12.5472 5.59145 12.5472H0.731386C0.327453 12.5472 0 12.8747 0 13.2786Z" fill="#57CDB1"/>
<path fill-rule="evenodd" clip-rule="evenodd" d="M0.963191 4.67774C0.767188 5.03107 0.891777 5.48121 1.24147 5.68315L5.45015 8.11364C5.79984 8.31559 6.24221 8.19287 6.43821 7.83954C6.63422 7.48621 6.50963 7.03607 6.15994 6.83413L1.95126 4.40364C1.60157 4.20169 1.15919 4.32441 0.963191 4.67774Z" fill="#57CDB1"/>
<path fill-rule="evenodd" clip-rule="evenodd" d="M0.963191 21.88C0.767188 21.5267 0.891777 21.0765 1.24147 20.8746L5.45015 18.4441C5.79984 18.2421 6.24221 18.3649 6.43821 18.7182C6.63422 19.0715 6.50963 19.5216 6.15994 19.7236L1.95126 22.1541C1.60157 22.356 1.15919 22.2333 0.963191 21.88Z" fill="#57CDB1"/>
<path fill-rule="evenodd" clip-rule="evenodd" d="M65 13.2791C65 12.8752 64.6725 12.5477 64.2686 12.5477L59.4085 12.5477C59.0046 12.5477 58.6772 12.8752 58.6772 13.2791C58.6772 13.683 59.0046 14.0105 59.4085 14.0105L64.2686 14.0105C64.6725 14.0105 65 13.683 65 13.2791Z" fill="#57CDB1"/>
<path fill-rule="evenodd" clip-rule="evenodd" d="M64.0368 21.88C64.2328 21.5267 64.1082 21.0765 63.7585 20.8746L59.5499 18.4441C59.2002 18.2421 58.7578 18.3649 58.5618 18.7182C58.3658 19.0715 58.4904 19.5217 58.8401 19.7236L63.0487 22.1541C63.3984 22.356 63.8408 22.2333 64.0368 21.88Z" fill="#57CDB1"/>
<path fill-rule="evenodd" clip-rule="evenodd" d="M64.0368 4.67774C64.2328 5.03107 64.1082 5.48121 63.7585 5.68316L59.5499 8.11365C59.2002 8.31559 58.7578 8.19287 58.5618 7.83954C58.3658 7.48621 58.4904 7.03608 58.8401 6.83413L63.0487 4.40364C63.3984 4.2017 63.8408 4.32442 64.0368 4.67774Z" fill="#57CDB1"/>
</svg>
