<svg width="50" height="37" viewBox="0 0 50 37" fill="none" xmlns="http://www.w3.org/2000/svg">
<path d="M9.63867 4.56018L12.5905 3.88815" stroke="white" stroke-width="2" stroke-miterlimit="10" stroke-linecap="round" stroke-linejoin="round"/>
<path d="M22.6543 23.2922L43.5859 18.5267C45.1959 18.1602 46.8349 19.1601 47.1916 20.7266C47.5482 22.2932 46.5036 23.9041 44.8936 24.2706L31.7442 27.2643L19.9366 29.9525" stroke="white" stroke-width="2" stroke-miterlimit="10" stroke-linecap="round" stroke-linejoin="round"/>
<path d="M12.5879 3.88855L25.6029 22.6209" stroke="white" stroke-width="2" stroke-miterlimit="10" stroke-linecap="round" stroke-linejoin="round"/>
<path d="M41.5168 15.6097L30.0818 18.2195C28.425 18.5977 26.7101 17.8876 25.8055 16.449L21.474 9.56009C20.7427 8.39704 21.3748 6.85993 22.7128 6.54781L43.5662 1.68292C44.9576 1.35833 46.2307 2.55516 45.9926 3.96391L44.5708 12.3766C44.301 13.9731 43.0953 15.2495 41.5168 15.6097Z" stroke="white" stroke-width="2"/>
<path d="M38.2909 3.25935L38.5201 16.2291" stroke="white" stroke-width="2" stroke-miterlimit="10" stroke-linecap="round" stroke-linejoin="round"/>
<path d="M27.5527 5.62415L33.6856 17.2934" stroke="white" stroke-width="2" stroke-miterlimit="10" stroke-linecap="round" stroke-linejoin="round"/>
<path d="M44.8299 31.4259C45.8673 31.1897 46.522 30.18 46.2922 29.1705C46.0623 28.1611 45.035 27.5343 43.9977 27.7704C42.9602 28.0066 42.3054 29.0164 42.5353 30.0259C42.7651 31.0353 43.7924 31.6621 44.8299 31.4259Z" stroke="white" stroke-width="2" stroke-miterlimit="10" stroke-linecap="round" stroke-linejoin="round"/>
<path d="M26.0887 35.7072C27.1526 35.7072 28.0151 34.868 28.0151 33.8327C28.0151 32.7976 27.1526 31.9584 26.0887 31.9584C25.0246 31.9584 24.1621 32.7976 24.1621 33.8327C24.1621 34.868 25.0246 35.7072 26.0887 35.7072Z" stroke="white" stroke-width="2" stroke-miterlimit="10" stroke-linecap="round" stroke-linejoin="round"/>
<path d="M1 21.1177H14.9211" stroke="white" stroke-width="2" stroke-miterlimit="10" stroke-linecap="round" stroke-linejoin="round"/>
<path d="M11.6935 25.9266H14.9216" stroke="white" stroke-width="2" stroke-miterlimit="10" stroke-linecap="round" stroke-linejoin="round"/>
<path d="M5.84225 16.0929H14.9212" stroke="white" stroke-width="2" stroke-miterlimit="10" stroke-linecap="round" stroke-linejoin="round"/>
</svg>
