<svg class ="heart-blue-icon"  viewBox="0 0 38 40" fill="none" xmlns="http://www.w3.org/2000/svg">
<g clip-path="url(#clip0_40_1444)">
<path d="M3.4092 14.3581C5.0941 11.2345 7.58684 9.94659 10.964 10.4604C11.6434 10.563 12.3097 10.7294 12.9893 10.8225C13.8242 10.9319 14.4984 10.6137 14.9091 9.84889C15.2045 9.29951 15.4478 8.72418 15.7238 8.16555C17.8041 3.97561 22.6495 2.74584 26.4067 5.45503C26.6937 6.37989 27.2361 7.28462 26.5247 8.28761C25.5876 8.70094 24.9581 8.05921 24.2248 7.73651C23.0072 7.19796 21.954 7.29442 21.1762 8.59269C20.5314 9.67133 19.7329 10.6471 19.2207 11.8155C18.2105 14.1117 16.4013 15.3908 13.8924 15.7449C12.3949 15.9573 10.8058 15.883 9.51282 16.9526C7.08755 17.407 4.44114 16.28 3.4092 14.3581Z" fill="#4ABAFE"/>
<path d="M3.40935 14.3581C5.1312 15.7637 7.03049 16.77 9.36737 16.8361C12.1909 16.7125 14.9784 17.2161 17.8461 16.4517C22.3305 15.2575 25.3681 12.8275 26.3588 8.21959C26.5543 7.88732 26.4828 7.57154 26.3649 7.24124C26.1509 6.6552 26.1221 6.05611 26.4069 5.45503L26.4319 5.4661C26.5797 5.4768 26.6971 5.54573 26.7784 5.66145C28.5443 6.81635 29.5355 8.5353 30.2188 10.4675C30.3016 10.7062 30.2452 10.9917 30.2534 11.2587C29.6866 11.1751 29.4345 10.7416 29.1704 10.3237C28.8576 10.0969 28.7823 8.91254 28.1318 10.0797C27.7944 10.6837 27.7778 11.4104 27.5445 12.0663C26.4982 14.5189 24.9821 16.7053 23.2626 18.7476C22.1495 20.0732 20.5513 20.5411 18.9054 20.3911C15.3958 20.0681 11.9062 19.6256 8.37611 19.451C7.09636 19.3864 5.9962 18.8168 4.94216 18.1811C4.27297 17.7688 3.67567 17.653 3.26601 18.5601C3.13237 18.7182 2.96527 18.7982 2.76077 18.802C2.19861 17.2365 2.52423 15.7679 3.40935 14.3581Z" fill="#4BAFFC"/>
<path d="M29.4896 9.83341C29.7428 10.3092 30 10.7829 30.2532 11.2587L30.2348 11.3013C30.1553 11.4796 30.0757 11.6579 29.9962 11.8362C28.1102 15.471 27.4672 19.4458 26.4235 23.3052C26.2615 23.9059 26.1692 24.5188 25.9703 25.1144C25.0878 27.7407 23.4233 28.7038 20.8272 27.8795C16.7183 26.576 12.8451 24.6915 8.75074 23.3474C7.62122 22.9782 6.62556 22.1511 5.30431 22.5024C5.26474 22.8222 5.37951 23.116 5.40438 23.4269C5.40481 23.5979 5.35489 23.7564 5.26246 23.8985C4.16786 23.1501 3.6906 22.0077 3.31788 20.7981C3.38382 20.5221 3.33573 20.2039 3.64524 20.0137C4.71731 19.5651 5.6985 19.9524 6.66158 20.2728C11.2023 21.7854 15.9504 22.6696 20.4542 24.2771C22.0933 24.8636 23.0742 24.2995 23.8263 22.8288C24.7486 21.0243 25.5102 19.1728 25.8909 17.1958C25.9414 17.0084 26.0093 16.8265 26.0791 16.6484C26.1373 16.4667 26.2071 16.2885 26.2808 16.1084C26.6762 15.0421 27.1451 13.9956 27.2733 12.8555C27.3006 12.6608 27.353 12.4773 27.4249 12.2934C27.9712 11.3646 27.6518 9.73305 29.4896 9.83341Z" fill="#369FEB"/>
<path d="M4.60265 22.454C4.54668 21.6593 4.68729 21.4453 5.22125 21.6122C6.58893 22.0461 8.0268 22.2827 9.26895 23.0514C9.72081 23.3313 10.2748 23.4689 10.7993 23.6264C13.3656 24.3801 15.814 25.3839 18.2229 26.5077C19.3898 27.0529 20.6781 27.3653 21.9388 27.7012C23.0193 27.9906 24.6091 27.1654 25.0739 26.1304C25.3021 25.6246 25.5153 25.0979 25.6409 24.5632C26.1679 22.2836 26.7821 20.0217 27.3634 17.7527C27.8115 16.0031 28.4528 14.3268 28.982 12.6123C29.1299 12.1329 29.3622 11.7154 29.8517 11.4814C30.2971 11.698 30.4374 12.074 30.4084 12.5454C30.678 13.4648 30.6164 14.3904 30.4086 15.3283C30.3196 15.4972 30.2247 15.6642 30.1356 15.8331C30.0291 15.9965 29.9168 16.1581 29.8103 16.3215C28.6508 19.3643 27.9153 22.5202 26.9087 25.6043C26.695 26.2598 26.5761 26.9385 26.2674 27.5708C25.2012 29.7527 24.1228 30.3186 21.7454 29.9496C19.6609 29.627 17.9254 28.5139 16.0673 27.6816C13.1462 26.3753 10.08 25.4041 7.18749 24.026C6.24642 23.5804 5.39809 23.0734 4.60265 22.454Z" fill="#2B96E1"/>
<path d="M5.25669 23.8967C5.25134 23.7757 5.23233 23.6569 5.19964 23.5402C6.11809 23.1792 6.60144 23.9235 7.25084 24.2555C10.1876 26.2342 13.5867 27.303 16.8298 28.6745C18.0131 29.1734 19.2801 29.4823 20.4425 30.0584C22.6554 31.1531 24.8456 31.441 26.8407 29.3494C26.9936 29.3908 27.0737 29.4739 27.0851 29.587C27.0964 29.7002 27.0853 29.7677 27.0538 29.7836C26.1229 32.1111 25.0449 32.7576 22.7667 32.2907C22.0281 32.1372 21.2984 31.9221 20.599 31.6583C17.1501 30.3579 13.7034 29.0421 10.3809 27.4587C8.77847 26.6967 7.24444 25.8239 5.917 24.6512C5.66435 24.4368 5.47148 24.154 5.25669 23.8967Z" fill="#317DB6"/>
<path d="M30.2098 16.8753C30.3423 17.6358 30.0609 18.3636 29.9021 19.0911C29.3563 21.6324 28.9209 24.1985 28.0085 26.664C27.8115 26.683 27.6492 26.6226 27.5197 26.479C27.2556 26.061 27.3308 25.6138 27.4392 25.164C27.4757 24.998 27.5277 24.8337 27.5873 24.675C27.6889 24.3713 27.7788 24.0641 27.8242 23.7461C27.8389 23.596 27.8691 23.4474 27.8994 23.2989C27.9276 23.1561 27.9713 23.015 28.0209 22.8757C28.0417 22.8081 28.0723 22.7402 28.0931 22.6726C28.1348 22.5373 28.1881 22.4056 28.2374 22.2759C28.2316 22.2741 28.3153 22.0842 28.3095 22.0824C28.3491 21.9529 28.3945 21.8252 28.4399 21.6975C28.4341 21.6957 28.4925 21.5043 28.4885 21.5063C28.5179 21.3059 28.5278 21.1058 28.5319 20.904C28.5367 20.7636 28.557 20.6248 28.587 20.4859C28.6152 20.3432 28.6609 20.2059 28.7007 20.0667C28.7196 19.9953 28.7444 19.9256 28.7634 19.8542C28.7975 19.7036 28.8355 19.5607 28.8697 19.4102C28.881 19.3331 28.8923 19.256 28.9036 19.1789C28.905 19.0117 28.9199 18.8519 28.9387 18.6901C29.2307 17.9236 28.9687 16.9195 29.9844 16.4662C30.114 16.51 30.1903 16.5854 30.2116 16.6888C30.2385 16.8036 30.2373 16.8613 30.2098 16.8753Z" fill="#3A8BCA"/>
<path d="M27.05 29.7856C26.9843 29.6619 26.9148 29.5402 26.8491 29.4165C26.291 28.2296 26.7065 27.3243 27.7914 26.6219C27.8632 26.6378 27.9349 26.6538 28.0047 26.666C27.9666 27.7794 27.6516 28.8193 27.05 29.7856Z" fill="#3A8BCA"/>
<path d="M3.52333 20.2651C3.45345 20.4432 3.38357 20.6213 3.31182 20.7956C2.92695 20.1918 2.56569 19.5761 2.76286 18.7961C2.89462 18.7341 3.02638 18.672 3.15627 18.6061C3.22928 18.6547 3.30229 18.7033 3.37529 18.7518C3.64397 19.229 3.74084 19.7268 3.52333 20.2651Z" fill="#43AAF6"/>
<path d="M30.4033 12.5449C30.2194 12.1904 30.0337 11.8321 29.8459 11.4796C29.9735 11.4197 30.103 11.3636 30.2345 11.3016C30.4761 11.684 30.6377 12.0831 30.4033 12.5449Z" fill="#3FA6F2"/>
<path d="M29.9679 15.5232C30.1128 15.4592 30.2559 15.3914 30.399 15.3237C30.541 15.6428 30.5295 15.9586 30.3508 16.2734C30.2676 16.2536 30.1805 16.2358 30.0973 16.216C29.8948 16.0229 29.8309 15.793 29.9679 15.5232Z" fill="#5B9DD1"/>
<path d="M30.2102 16.8766C30.1157 16.7338 30.0172 16.5931 29.9226 16.4504L29.994 16.2663L30.1892 16.2246L30.3496 16.2719C30.3031 16.4767 30.2586 16.6756 30.2102 16.8766Z" fill="#5B9DD1"/>
<path d="M26.7783 5.66158C26.6387 5.63723 26.5232 5.57206 26.4319 5.46609C26.6077 5.43405 26.7413 5.46621 26.7783 5.66158Z" fill="#4ABAFE"/>
<path d="M26.3626 8.21759C26.7043 9.32401 26.5569 10.355 25.8266 11.3295C25.5345 11.7154 25.3018 12.1522 25.0886 12.5886C24.7069 13.3625 24.2038 13.9792 23.3598 14.3216C22.9829 14.4747 22.6252 14.7369 22.3179 15.0117C21.2411 15.9811 20.0481 16.6337 18.5812 16.6783C18.3825 16.6839 18.1461 16.7229 17.9901 16.8353C17.1308 17.4471 16.148 17.4269 15.1935 17.4543C14.0266 17.4894 12.8669 17.3591 11.6882 17.5002C10.8431 17.6005 10.0669 17.2805 9.36932 16.8303C9.38737 16.2265 9.54051 15.7778 10.2954 15.7042C11.5986 15.5761 12.9037 15.4423 14.1953 15.2108C16.3799 14.8165 18.0353 13.6345 18.8117 11.5329C19.3762 10.0003 20.4591 8.8232 21.3846 7.53563C21.8974 6.81884 22.7192 6.81125 23.4613 6.89162C24.0635 6.9573 24.7108 7.10478 25.0993 7.62608C25.4215 8.06212 25.9746 7.95767 26.3626 8.21759Z" fill="#52B8FF"/>
<path d="M3.15792 18.6101C2.90182 17.9884 2.99306 17.4236 3.53018 16.8562C4.12134 17.1796 4.71456 17.4973 5.30572 17.8207C7.29858 18.9175 8.05395 19.015 10.5738 19.0834C12.4963 19.1361 14.4195 19.3406 16.3077 19.6437C17.3284 19.8112 18.3625 19.7958 19.3797 19.946C20.5404 20.1185 21.4727 19.2652 22.5392 18.9955C23.0458 17.9156 24.159 17.2607 24.6331 16.1545C24.7965 15.7767 24.9893 15.3887 25.2584 15.0762C26.0859 14.1095 26.6708 13.0089 27.2269 11.8896C27.5865 12.0117 27.6708 12.2734 27.5859 12.6209C27.336 15.0645 25.4907 16.9707 25.0474 19.3505C23.4585 22.3494 22.2873 22.8862 18.8745 22.5903C14.2586 22.1956 9.85571 20.9937 5.41111 19.927C4.52567 19.7148 3.75498 19.3159 3.17327 18.6214L3.15792 18.6101Z" fill="#43AAF6"/>
<path d="M27.582 12.6229C27.4623 12.3792 27.3426 12.1354 27.2229 11.8916C27.289 10.9352 27.553 10.0116 27.904 9.11529C28.1196 8.56354 28.6741 8.48212 29.021 8.94845C29.2201 9.21382 29.3342 9.53649 29.4898 9.83341C28.8735 10.0793 28.4757 10.4999 28.2565 11.1344C28.0806 11.647 27.81 12.1267 27.582 12.6229Z" fill="#3FA6F2"/>
<path d="M3.17326 18.6214C3.30939 18.6285 3.47179 18.5889 3.58167 18.6426C5.7268 19.7194 7.98436 20.4346 10.4454 20.5234C10.8501 20.537 11.2458 20.7026 11.6469 20.7989C13.2433 21.1882 14.8295 21.5969 16.4304 21.9554C16.8897 22.0602 17.3908 22.0202 17.8734 22.0323C18.356 22.0445 18.9693 21.8524 19.3075 22.071C20.7125 22.9712 21.8009 21.7152 23.0316 21.5098C23.1956 21.4837 23.3851 21.2591 23.4626 21.0866C23.7726 20.3871 24.4985 19.9238 24.6468 19.135C25.3838 18.5044 24.9237 16.9966 26.3743 16.8889C26.2087 17.7626 26.1822 18.6894 25.8503 19.5047C25.1802 21.1623 24.5926 22.878 23.4265 24.3161C22.602 25.3288 22.4898 25.3905 21.3149 25.0491C20.0646 24.6841 18.837 24.2553 17.5846 23.8962C16.1405 23.4867 14.7476 22.9514 13.2174 22.757C11.9435 22.5942 10.7338 22.0517 9.49733 21.6749C8.38483 21.3304 7.26614 21.0034 6.16396 20.6299C5.30742 20.3364 4.4401 20.1911 3.52729 20.2734C3.18309 19.7724 3.12825 19.2103 3.17326 18.6214Z" fill="#3EA4F0"/>
<path d="M29.9224 16.4501C29.718 17.3149 29.5155 18.1835 29.3111 19.0483C29.2471 19.2282 29.1811 19.414 29.119 19.5977C29.0529 19.7834 28.985 19.9654 28.9208 20.1549C28.8489 20.3388 28.7829 20.5245 28.7226 20.7121C28.5879 21.0182 28.8212 21.3233 28.6982 21.6331L28.6961 21.6389C28.6301 21.8246 28.5621 22.0066 28.5 22.1903C28.434 22.376 28.366 22.5579 28.3018 22.7475C28.23 22.9314 28.1639 23.1171 28.1037 23.3047C27.979 23.7913 27.9902 24.2946 27.8811 24.7829C27.1223 26.2 27.1826 27.844 26.3499 29.2605C25.39 30.8985 24.5495 31.4484 22.7891 30.895C17.3239 29.1708 12.0162 27.0766 6.95684 24.4474C6.2299 24.3879 5.87256 23.6699 5.18407 23.5386C4.98695 23.1771 4.78796 22.8118 4.58691 22.4523C5.60677 22.4679 6.35441 23.1402 7.2214 23.495C9.42657 24.3938 11.5731 25.4032 13.845 26.1778C15.5755 26.7702 17.2007 27.6586 18.8351 28.4758C20.1381 29.1281 21.5135 29.4677 22.975 29.5923C23.9021 29.6693 24.6269 29.3541 25.1024 28.5611C25.6765 27.6087 26.2871 26.6806 26.3807 25.52C26.4852 24.2015 27.1653 23.0146 27.5625 21.7619C27.918 20.6444 28.3701 19.5636 28.4236 18.3614C28.4683 17.4016 29.1023 16.5711 29.5576 15.717C29.8976 15.849 30.0193 16.087 29.8992 16.4428L29.9224 16.4501Z" fill="#258CD2"/>
<path d="M26.3724 16.8851C25.8945 17.1227 25.6603 17.5364 25.5086 18.0082C25.353 18.4819 25.1228 18.8936 24.6449 19.1312C24.8569 17.9818 25.0859 16.8667 26.0593 15.9972C26.3905 15.7009 26.4913 15.1455 26.6832 14.7057C26.9854 14.0101 27.0846 13.2414 27.5819 12.6229C27.7062 12.9262 27.7972 13.2416 27.6795 13.5725C27.3453 14.5031 27.1599 15.4867 26.5724 16.3317C26.5064 16.5175 26.421 16.6939 26.3724 16.8851Z" fill="#3FA6F2"/>
<path d="M26.3731 16.8866C26.4384 16.7007 26.5036 16.5147 26.5689 16.3287C26.5036 16.5147 26.4384 16.7007 26.3731 16.8866Z" fill="#3EA4F0"/>
<path d="M29.9215 16.4482C29.8073 16.2056 29.6931 15.963 29.5789 15.7204C29.7083 15.6548 29.8378 15.5891 29.9691 15.5273C30.0446 15.7609 30.1201 15.9945 30.1916 16.2301C30.1162 16.316 30.0255 16.3906 29.9215 16.4482Z" fill="#3A8BCA"/>
<path d="M6.9668 24.4472C8.22988 24.7581 9.36841 25.3558 10.5356 25.8818C10.908 26.0498 11.2696 26.266 11.663 26.3567C13.2192 26.7141 14.6175 27.4607 16.0155 28.1266C18.3837 29.2472 20.9466 29.7838 23.402 30.6318C24.3127 30.9454 25.0808 30.5084 25.5804 29.7745C26.3269 28.6729 26.9988 27.5092 27.1078 26.1599C27.1549 25.5651 27.3262 25.0834 27.8871 24.7847C27.9312 25.395 27.4984 26.0046 27.7915 26.6219C27.3452 27.5142 26.9743 28.4302 26.8492 29.4165C25.647 31.3915 24.4944 31.8761 22.3403 31.2416C21.3591 30.9542 20.3392 30.7483 19.489 30.1376C19.2223 29.9446 18.8658 29.859 18.5427 29.7612C15.0612 28.7247 11.8364 27.1203 8.53426 25.6884C7.89925 25.4158 7.33228 25.0516 6.9668 24.4472Z" fill="#2383C8"/>
<path d="M27.8896 24.7898C27.6352 24.2616 27.7068 23.768 28.1104 23.3109C28.3591 23.8373 28.2913 24.3289 27.8896 24.7898Z" fill="#2383C8"/>
<path d="M28.6991 21.635C28.5589 21.3293 28.4964 21.0224 28.7215 20.7126C28.8618 21.0183 28.9282 21.3233 28.6991 21.635Z" fill="#2383C8"/>
<path d="M28.1121 23.3118C28.1774 23.1258 28.2427 22.9399 28.3079 22.7539C28.2427 22.9399 28.1774 23.1258 28.1121 23.3118Z" fill="#2383C8"/>
<path d="M28.3104 22.7546C28.3756 22.5687 28.4409 22.3827 28.5062 22.1968C28.439 22.3789 28.3756 22.5687 28.3104 22.7546Z" fill="#2383C8"/>
<path d="M28.5067 22.1935C28.572 22.0075 28.6335 21.8236 28.7007 21.6415C28.6335 21.8236 28.5681 22.0095 28.5067 22.1935Z" fill="#2383C8"/>
<path d="M28.7254 20.7174C28.7907 20.5314 28.8559 20.3455 28.9212 20.1595C28.8559 20.3455 28.7907 20.5314 28.7254 20.7174Z" fill="#2383C8"/>
<path d="M28.9234 20.1602C28.9887 19.9743 29.0539 19.7883 29.1192 19.6023C29.05 19.7903 28.9887 19.9743 28.9234 20.1602Z" fill="#2383C8"/>
<path d="M29.1197 19.5991C29.1811 19.4151 29.2484 19.233 29.3098 19.049C29.2444 19.235 29.183 19.4189 29.1197 19.5991Z" fill="#2383C8"/>
</g>
<defs>
<clipPath id="clip0_40_1444">
<rect width="29.0004" height="27.3489" fill="white" transform="matrix(0.890316 -0.451489 0.439973 0.896229 0 14.3696)"/>
</clipPath>
</defs>
</svg>
