<svg width="43" height="43" viewBox="0 0 43 43" fill="none" xmlns="http://www.w3.org/2000/svg">
<path d="M14.2948 23.1712C14.2825 19.5615 17.3159 16.5979 20.9749 16.6927C24.3545 16.784 27.3106 19.572 27.2947 23.2186C27.2807 26.8054 24.3598 29.7005 20.7711 29.6883C17.1823 29.676 14.2825 26.7563 14.2948 23.1712ZM23.8993 23.2853C23.815 23.1677 23.7148 23.0623 23.6041 22.9693C22.3036 22.1985 20.9995 21.4348 19.6902 20.6763C19.3633 20.485 19.1032 20.6184 19.1032 20.9924C19.0909 22.5286 19.0909 24.0648 19.1032 25.5993C19.1032 25.975 19.3633 26.119 19.6885 25.9276C21.0083 25.1656 22.3211 24.3949 23.6304 23.6154C23.7271 23.5557 23.7851 23.4222 23.8993 23.2853Z" fill="#010100"/>
<path d="M32.5224 14.3922H28.6332L26.9453 11.2765C26.5175 10.4871 25.6815 9.99477 24.7743 10H17.2239C16.3167 9.99477 15.4807 10.4853 15.053 11.2765L13.365 14.3922H9.47578C8.11045 14.401 7.00713 15.4911 7 16.8362V30.5753C7 31.9134 8.11936 33 9.47578 33H32.5242C33.8806 33 35 31.9151 35 30.5753V16.8362C34.9911 15.4894 33.8878 14.3992 32.5224 14.3922ZM33.5937 30.5753C33.5848 31.1521 33.1071 31.6145 32.5224 31.6127H9.474C8.88936 31.6145 8.41168 31.1521 8.40277 30.5753V16.8362C8.4099 16.256 8.88402 15.7865 9.474 15.7795H13.7857C14.0441 15.783 14.283 15.6441 14.4059 15.4208L16.2917 11.9324C16.4753 11.5948 16.8336 11.3838 17.2222 11.3873H24.7725C25.1628 11.3856 25.5193 11.5983 25.7029 11.9377L27.5905 15.4208C27.7135 15.6441 27.9523 15.783 28.2108 15.7777H32.5224C33.1106 15.7848 33.5865 16.2542 33.5937 16.8344V30.5753Z" fill="#010100"/>
<path d="M20.9991 16.7782C17.3987 16.7782 14.4808 19.6565 14.4808 23.2082C14.4808 26.7599 17.3987 29.6382 20.9991 29.6382C24.5996 29.6382 27.5174 26.7599 27.5174 23.2082C27.5139 19.6582 24.5978 16.7817 20.9991 16.7782ZM20.9991 28.2527C18.1758 28.2527 15.8854 25.9951 15.8854 23.2082C15.8854 20.4231 18.174 18.1637 20.9991 18.1637C23.8225 18.1637 26.1129 20.4213 26.1129 23.2082C26.1075 25.9933 23.8207 28.2492 20.9991 28.2527Z" fill="#010100"/>
<rect x="0.75" y="0.75" width="41.5" height="41.5" rx="12.25" stroke="#191919" stroke-width="1.5"/>
</svg>
