<svg width="43" height="43" viewBox="0 0 43 43" fill="none" xmlns="http://www.w3.org/2000/svg">
<rect x="0.75" y="0.75" width="41.5" height="41.5" rx="12.25" stroke="#191919" stroke-width="1.5"/>
<path d="M26.2949 9.41315H15.7051C13.6627 9.41315 12 10.9996 12 12.9482V32.4649C12 34.4135 13.6627 36 15.7051 36H26.2949C28.3373 36 30 34.4135 30 32.4649V12.9482C30 10.9996 28.339 9.41315 26.2949 9.41315ZM26.2949 34.8143H15.7051C14.3465 34.8143 13.2427 33.7595 13.2427 32.4649V12.9482C13.2427 11.6519 14.3482 10.5988 15.7051 10.5988H26.2949C27.6535 10.5988 28.7573 11.6536 28.7573 12.9482V32.4649C28.7573 33.7612 27.6535 34.8143 26.2949 34.8143Z" fill="black"/>
<path d="M24.3316 8.47239H17.6684C17.4715 8.47239 17.3134 8.31978 17.3134 8.13364V7.33875C17.3134 7.15093 17.4733 7 17.6684 7H24.3316C24.5285 7 24.6867 7.15261 24.6867 7.33875V8.13364C24.6884 8.31978 24.5285 8.47239 24.3316 8.47239Z" fill="black"/>
<path d="M25.4072 11.4188L22.1486 18.3783H25.815L22.1486 23.5367H25.815L17.1867 33.996L20.1818 26.7883H16.1866L20.0745 21.7004H16.1866L25.4072 11.4188Z" fill="black"/>
</svg>
