<svg width="38" height="56" viewBox="0 0 38 56" fill="none" xmlns="http://www.w3.org/2000/svg">
<path fill-rule="evenodd" clip-rule="evenodd" d="M34.4374 2.625H3.56249C3.07062 2.625 2.67187 3.01675 2.67187 3.5V47.25C2.67187 50.6327 5.4631 53.375 8.90624 53.375H29.0937C32.5368 53.375 35.3281 50.6327 35.3281 47.25V3.5C35.3281 3.01676 34.9293 2.625 34.4374 2.625ZM3.56249 0C1.59498 0 0 1.567 0 3.5V47.25C0 52.0825 3.98747 56 8.90624 56H29.0937C34.0125 56 37.9999 52.0825 37.9999 47.25V3.5C37.9999 1.567 36.4049 0 34.4374 0H3.56249Z" fill="white"/>
<path fill-rule="evenodd" clip-rule="evenodd" d="M36.0287 44.8198H2.7417V42.1948H36.0287V44.8198Z" fill="white"/>
<path d="M21.3745 48.9989C21.3745 50.2876 20.3112 51.3323 18.9995 51.3323C17.6878 51.3323 16.6245 50.2876 16.6245 48.9989C16.6245 47.7103 17.6878 46.6656 18.9995 46.6656C20.3112 46.6656 21.3745 47.7103 21.3745 48.9989Z" fill="#57CDB1"/>
</svg>
