<svg width="25" height="21" viewBox="0 0 25 21" fill="none" xmlns="http://www.w3.org/2000/svg">
<path fill-rule="evenodd" clip-rule="evenodd" d="M17.519 0.945235H6.59625C6.42224 0.945235 6.28117 1.0863 6.28117 1.26031V17.0142C6.28117 18.2323 7.26863 19.2198 8.48672 19.2198H15.6285C16.8466 19.2198 17.834 18.2323 17.834 17.0142V1.26031C17.834 1.0863 17.693 0.945235 17.519 0.945235ZM6.59625 0C5.9002 0 5.33594 0.564261 5.33594 1.26031V17.0142C5.33594 18.7544 6.74659 20.165 8.48672 20.165H15.6285C17.3686 20.165 18.7793 18.7544 18.7793 17.0142V1.26031C18.7793 0.564261 18.215 0 17.519 0H6.59625Z" fill="#454752"/>
<path fill-rule="evenodd" clip-rule="evenodd" d="M18.0807 16.1396H6.30469V15.1943H18.0807V16.1396Z" fill="#454752"/>
<path d="M12.8972 17.6439C12.8972 18.108 12.521 18.4841 12.057 18.4841C11.593 18.4841 11.2168 18.108 11.2168 17.6439C11.2168 17.1799 11.593 16.8037 12.057 16.8037C12.521 16.8037 12.8972 17.1799 12.8972 17.6439Z" fill="#454752"/>
<path fill-rule="evenodd" clip-rule="evenodd" d="M3.53453 8.20011C3.61337 8.44894 3.47556 8.71457 3.22673 8.79341C2.35193 9.07057 0.945235 10.1741 0.945235 12.0835C0.945235 14.1095 2.6076 15.2173 3.61642 15.4103C3.87279 15.4593 4.04086 15.7069 3.99182 15.9633C3.94277 16.2197 3.69518 16.3877 3.43881 16.3387C2.12865 16.088 0 14.6954 0 12.0835C0 9.66091 1.77937 8.26043 2.94124 7.89232C3.19007 7.81348 3.45569 7.95129 3.53453 8.20011Z" fill="#454752"/>
<path fill-rule="evenodd" clip-rule="evenodd" d="M1.33748 7.23307C1.43816 6.99225 1.715 6.87864 1.95582 6.97932L3.74042 7.72543C3.95887 7.81676 4.07602 8.05562 4.01451 8.28426L3.48014 10.2705C3.41233 10.5226 3.15302 10.6719 2.90097 10.6041C2.64891 10.5363 2.49955 10.277 2.56736 10.0249L2.9943 8.43801L1.59122 7.85141C1.3504 7.75073 1.2368 7.47389 1.33748 7.23307Z" fill="#454752"/>
<path fill-rule="evenodd" clip-rule="evenodd" d="M20.5387 11.9351C20.4599 11.6863 20.5977 11.4207 20.8465 11.3418C21.7213 11.0647 23.128 9.96119 23.128 8.05178C23.128 6.02575 21.4656 4.91795 20.4568 4.72496C20.2005 4.67592 20.0324 4.42833 20.0814 4.17196C20.1305 3.91559 20.3781 3.74752 20.6344 3.79656C21.9446 4.0472 24.0732 5.43987 24.0732 8.05178C24.0732 10.4743 22.2939 11.8748 21.132 12.2429C20.8832 12.3218 20.6175 12.184 20.5387 11.9351Z" fill="#454752"/>
<path fill-rule="evenodd" clip-rule="evenodd" d="M22.7358 12.9022C22.6351 13.143 22.3582 13.2566 22.1174 13.1559L20.3328 12.4098C20.1144 12.3185 19.9972 12.0796 20.0587 11.851L20.5931 9.86474C20.6609 9.61269 20.9202 9.46333 21.1723 9.53114C21.4243 9.59895 21.5737 9.85826 21.5059 10.1103L21.0789 11.6972L22.482 12.2838C22.7228 12.3845 22.8364 12.6614 22.7358 12.9022Z" fill="#454752"/>
<path d="M14.4858 7.35732C14.4858 7.61936 14.4285 7.88006 14.3158 8.12496C14.203 8.37001 14.0363 8.59564 13.823 8.78767C13.6095 8.97979 13.3538 9.13416 13.0696 9.24013C12.7853 9.3461 12.4793 9.40107 12.1695 9.40107C11.8597 9.40107 11.5538 9.3461 11.2695 9.24013C10.9853 9.13416 10.7296 8.97979 10.5161 8.78767C10.3027 8.59564 10.1361 8.37001 10.0233 8.12496C9.91057 7.88006 9.85329 7.61936 9.85329 7.35732" stroke="#454752" stroke-width="0.817498" stroke-linejoin="round"/>
<circle cx="9.31847" cy="5.72424" r="0.817498" fill="#454752"/>
<circle cx="14.7687" cy="5.72228" r="0.817498" fill="#454752"/>
</svg>
