<svg width="26" height="27" viewBox="0 0 26 27" fill="none" xmlns="http://www.w3.org/2000/svg">
<g clip-path="url(#clip0)">
<path d="M13.361 5.47421L21.479 11.9838V19.9666C21.479 20.9602 20.6742 21.7482 19.6595 21.7482H7.06258C6.04783 21.7482 5.24303 20.9602 5.24303 19.9666V11.9838L13.361 5.47421ZM13.361 4.58342C13.1511 4.58342 12.9411 4.65194 12.7662 4.78899L4.64817 11.2986C4.43822 11.4699 4.33325 11.7097 4.33325 11.9838V19.9666C4.33325 21.4398 5.55795 22.639 7.06258 22.639H19.6595C21.1641 22.639 22.3888 21.4398 22.3888 19.9666V11.9838C22.3888 11.7097 22.2838 11.4699 22.0739 11.2986L13.9559 4.78899C13.7809 4.65194 13.571 4.58342 13.361 4.58342Z" fill="#004FB9"/>
<path d="M14.3074 17.712C13.7723 17.1881 12.9491 17.1881 12.4141 17.712" stroke="#004FB9" stroke-width="1.18933" stroke-miterlimit="10" stroke-linecap="round" stroke-linejoin="round"/>
<path d="M16.161 15.8573C14.597 14.3259 12.0863 14.3259 10.5222 15.8573" stroke="#004FB9" stroke-width="1.18933" stroke-miterlimit="10" stroke-linecap="round" stroke-linejoin="round"/>
<path d="M18.0537 14.0438C15.4607 11.5049 11.2624 11.5049 8.66943 14.0438" stroke="#004FB9" stroke-width="1.18933" stroke-miterlimit="10" stroke-linecap="round" stroke-linejoin="round"/>
<path d="M6.95739 10.167H6.04761V6.60385H8.77694V8.38542L7.86716 9.27621V7.49463H6.95739V10.167Z" fill="#004FB9"/>
</g>
<defs>
<clipPath id="clip0">
<rect width="26" height="26" fill="white" transform="translate(0 0.611191)"/>
</clipPath>
</defs>
</svg>
