<svg width="33" height="26" viewBox="0 0 33 26" fill="none" xmlns="http://www.w3.org/2000/svg">
<path fill-rule="evenodd" clip-rule="evenodd" d="M7.69141 3.47919C7.37476 3.17467 6.8712 3.18451 6.56668 3.50116L4.7321 5.40882C4.45587 5.69605 4.4348 6.14334 4.68281 6.45526L6.43436 8.65821C6.70777 9.00208 7.20818 9.0592 7.55205 8.78579C7.89592 8.51238 7.95304 8.01197 7.67963 7.6681L6.36123 6.00993L7.71338 4.60393C8.0179 4.28727 8.00806 3.78371 7.69141 3.47919Z" fill="#5CDEB1"/>
<path d="M5.70117 6.1364C10.083 5.72446 12.9261 7.37248 12.9261 13.5522" stroke="#5CDEB1" stroke-width="1.44885" stroke-linecap="round" stroke-linejoin="round"/>
<path d="M15.209 7.37207H29.9554C30.8656 7.37207 31.6034 8.10989 31.6034 9.02003V23.0277C31.6034 23.9378 30.8656 24.6756 29.9554 24.6756H12.8106C12.2583 24.6756 11.7267 24.4653 11.3238 24.0874L8.39447 21.3397C7.95648 20.9289 7.70801 20.3551 7.70801 19.7546V12.3654" stroke="#004FB9" stroke-width="1.30396" stroke-linecap="round" stroke-linejoin="round"/>
<rect x="17.2377" y="11.496" width="10.4317" height="8.25843" rx="0.869308" stroke="#5CDEB1" stroke-width="1.15908"/>
<path d="M17.3828 15.2629H20.6427C21.0428 15.2629 21.3671 15.5873 21.3671 15.9874V19.9717" stroke="#5CDEB1" stroke-width="1.15908"/>
<path d="M23.9023 10.9165L23.9023 19.6096" stroke="#5CDEB1" stroke-width="1.15908"/>
<path d="M23.9023 14.9006H27.5245" stroke="#5CDEB1" stroke-width="1.15908"/>
</svg>
