<svg width="19" height="31" viewBox="0 0 19 31" fill="none" xmlns="http://www.w3.org/2000/svg">
<path d="M5.38086 6.73747C5.38086 6.27638 5.75465 5.90259 6.21574 5.90259H17.4469C17.908 5.90259 18.2817 6.27638 18.2817 6.73746V22.9167C18.2817 24.4837 17.0115 25.7539 15.4446 25.7539H8.21805C6.65112 25.7539 5.38086 24.4837 5.38086 22.9167V6.73747Z" stroke="#383C47"/>
<path d="M5.88287 21.6023H18.0597" stroke="#383C47" stroke-miterlimit="10"/>
<path d="M14.2673 11.8791C14.1706 11.8214 14.0256 11.8406 13.9289 11.8983L13.373 12.3024C13.2764 12.3601 13.3005 12.4755 13.3972 12.514C13.3972 12.514 14.2673 13.0142 14.2673 14.1109C14.2673 15.1306 13.3489 15.727 13.3489 15.727C13.2522 15.7847 13.2522 15.8809 13.3489 15.9579L13.8806 16.3619C13.9772 16.4196 14.1223 16.4388 14.2189 16.3811C14.2189 16.3811 15.524 15.6693 15.524 14.1109C15.524 12.5717 14.2673 11.8791 14.2673 11.8791Z" fill="#383C47"/>
<path d="M9.64171 14.5329C9.64171 14.5329 9.49763 14.5128 9.49763 14.6336C9.49763 15.2577 9.97103 15.6805 10.712 15.6805C11.2678 15.6805 11.4942 15.5597 11.8235 15.3181C11.9058 15.2577 11.9882 15.2175 12.0499 15.2779C12.0911 15.3181 12.6674 15.8416 12.6674 15.8416C12.7497 15.902 12.7291 15.9825 12.6468 16.0429C12.5645 16.1033 11.7 16.7678 10.712 16.7678C9.39471 16.7678 8.13916 16.204 8.13916 14.1302C8.13916 12.439 9.10655 11.4927 10.5474 11.4927C12.0911 11.4927 12.9555 12.5396 12.9555 13.949V14.3114C12.9555 14.4524 12.832 14.5329 12.7291 14.5329H9.64171ZM11.4736 13.1034C11.3295 12.8014 11.0208 12.5598 10.5474 12.5598C10.0739 12.5598 9.7652 12.7812 9.62112 13.1034C9.53879 13.2846 9.49763 13.4255 9.49763 13.6671H11.5971C11.5765 13.4255 11.5559 13.2846 11.4736 13.1034Z" fill="#383C47"/>
<circle cx="11.8312" cy="23.6475" r="0.667438" fill="#191919" stroke="#383C47" stroke-width="0.402734"/>
<path d="M13.5932 27.6509V27.6509C13.5932 28.8255 12.6411 29.7776 11.4665 29.7776H4.1492C2.30612 29.7776 0.812012 28.2835 0.812012 26.4404V11.3669C0.812012 10.6296 1.40966 10.032 2.14689 10.032H3.57366" stroke="#383C47" stroke-linecap="round"/>
<path d="M1.10596 25.6909H13.2828" stroke="#383C47" stroke-miterlimit="10"/>
<circle cx="7.20279" cy="27.736" r="0.667438" fill="#191919" stroke="#383C47" stroke-width="0.402734"/>
<path d="M1.48368 6.73516C1.1072 5.65222 1.23829 3.45083 3.18874 2.32474C5.01051 1.27294 6.83711 2.00485 7.60298 2.70468" stroke="#383C47" stroke-linecap="round" stroke-linejoin="round"/>
<path d="M7.88031 1.15161L8.11938 3.01492L6.18928 3.52999" stroke="#383C47" stroke-linecap="round" stroke-linejoin="round"/>
</svg>
