<svg width="25" height="25" viewBox="0 0 25 25" fill="none" xmlns="http://www.w3.org/2000/svg">
<path fill-rule="evenodd" clip-rule="evenodd" d="M1.17188 9.92064V21.0317C1.17188 22.5659 2.3961 23.8095 3.90625 23.8095H21.0938C22.6039 23.8095 23.8281 22.5659 23.8281 21.0317V9.92064C23.8281 9.79573 23.7702 9.67812 23.6719 9.60318L12.7344 1.26984C12.5955 1.16402 12.4045 1.16402 12.2656 1.26984L1.32813 9.60318L0.625 8.65079L11.5625 0.31746C12.1181 -0.10582 12.8819 -0.10582 13.4375 0.31746L24.375 8.65079C24.7684 8.95056 25 9.42102 25 9.92064V21.0317C25 23.2234 23.2511 25 21.0938 25H3.90625C1.74889 25 0 23.2234 0 21.0317V9.92064C0 9.42102 0.231554 8.95056 0.625 8.65079L1.32813 9.60318C1.22976 9.67812 1.17188 9.79573 1.17188 9.92064Z" fill="#004FB9"/>
<path fill-rule="evenodd" clip-rule="evenodd" d="M2.53906 2.77749C2.53906 2.44875 2.8014 2.18225 3.125 2.18225H6.25C6.5736 2.18225 6.83594 2.44875 6.83594 2.77749V4.89389C6.83594 5.22263 6.5736 5.48913 6.25 5.48913C5.9264 5.48913 5.66406 5.22263 5.66406 4.89389V3.37273H3.71094V7.49912C3.71094 7.82786 3.4486 8.09436 3.125 8.09436C2.8014 8.09436 2.53906 7.82786 2.53906 7.49912V2.77749Z" fill="#004FB9"/>
<path fill-rule="evenodd" clip-rule="evenodd" d="M8.80858 18.2401C10.8401 16.1763 14.1048 16.1763 16.1363 18.2401C16.3651 18.4725 16.3651 18.8494 16.1363 19.0818C15.9074 19.3143 15.5365 19.3143 15.3076 19.0818C13.7338 17.483 11.2111 17.483 9.63722 19.0818C9.4084 19.3143 9.0374 19.3143 8.80858 19.0818C8.57976 18.8494 8.57976 18.4725 8.80858 18.2401Z" fill="#57CDB1"/>
<path fill-rule="evenodd" clip-rule="evenodd" d="M6.6765 14.7923C9.89393 11.5238 15.1036 11.5238 18.3211 14.7923C18.5499 15.0248 18.5499 15.4017 18.3211 15.6341C18.0923 15.8666 17.7213 15.8666 17.4924 15.6341C14.7326 12.8305 10.2649 12.8305 7.50514 15.6341C7.27632 15.8666 6.90532 15.8666 6.6765 15.6341C6.44768 15.4017 6.44768 15.0248 6.6765 14.7923Z" fill="#57CDB1"/>
</svg>
