<svg width="28" height="24" viewBox="0 0 28 24" fill="none" xmlns="http://www.w3.org/2000/svg">
<path d="M4.49358 13.4726C4.45244 14.9042 4.2745 16.4208 4.14926 17.0668C4.07941 17.4272 3.8433 18.1296 4.23584 18.9733C4.72651 20.0278 6.37278 19.6568 9.17942 19.7432C16.6168 21.1864 19.7619 19.0357 20.951 18.2226L20.9698 18.2097C22.1443 17.4067 22.8404 15.1824 20.6099 12.9515C15.3522 8.32821 10.9442 12.0814 9.65962 14.7631C9.87697 14.109 10.3595 12.4975 10.1959 10.7641C9.99146 8.59736 10.2923 8.28028 10.3543 7.17707C11.3052 6.15233 13.0231 6.52595 13.7632 6.84085C14.1423 6.75255 14.7154 5.85418 15.0163 5.70887C16.1389 5.16671 15.5133 4.31649 15.3129 4.03573C15.0792 3.70819 13.7849 2.96822 12.9977 2.0582C12.368 1.33017 11.7547 1.5985 11.5311 1.80895C11.0311 2.27989 9.8751 3.17268 8.6507 3.62492C7.12021 4.19021 7.29497 4.96628 7.1541 5.76082C7.00579 6.59739 4.54336 11.7405 4.49358 13.4726Z" stroke="#004FB9" stroke-linecap="round" stroke-linejoin="round"/>
<path d="M9.52441 6.51733C10.181 6.8408 10.4795 6.84083 11.7927 6.51753" stroke="#004FB9" stroke-linecap="round"/>
<path d="M17.5107 8.19414L18.7224 3.7193C18.7466 3.62973 18.8733 3.62859 18.8992 3.71771L20.0755 7.77242C20.0911 7.82631 20.151 7.85369 20.202 7.83026L24.7512 5.73942C24.8278 5.70423 24.9074 5.78218 24.8738 5.85946L23.0681 10.0089C23.0451 10.0616 23.0758 10.1223 23.1319 10.135L26.9716 11.0077C27.0576 11.0272 27.0693 11.145 26.9888 11.181L23.6725 12.6656" stroke="#5CDEB1" stroke-width="0.9" stroke-linecap="round"/>
</svg>
