<svg width="19" height="28" viewBox="0 0 19 28" fill="none" xmlns="http://www.w3.org/2000/svg">
<path fill-rule="evenodd" clip-rule="evenodd" d="M16.8248 1.30537H1.7405C1.50019 1.30537 1.30537 1.50019 1.30537 1.7405V23.4967C1.30537 25.1789 2.66906 26.5426 4.35125 26.5426H14.2141C15.8963 26.5426 17.2599 25.1789 17.2599 23.4967V1.7405C17.2599 1.50019 17.0651 1.30537 16.8248 1.30537ZM1.7405 0C0.779248 0 0 0.779248 0 1.7405V23.4967C0 25.8999 1.94812 27.848 4.35125 27.848H14.2141C16.6172 27.848 18.5653 25.8999 18.5653 23.4967V1.7405C18.5653 0.779248 17.7861 0 16.8248 0H1.7405Z" fill="#383C47"/>
<path d="M12.4701 10.1604C12.4701 10.5223 12.391 10.8824 12.2353 11.2206C12.0795 11.559 11.8494 11.8706 11.5547 12.1358C11.2599 12.4011 10.9068 12.6143 10.5143 12.7606C10.1217 12.907 9.69916 12.9829 9.27131 12.9829C8.84346 12.9829 8.42095 12.907 8.02836 12.7606C7.6358 12.6143 7.2827 12.4011 6.98792 12.1358C6.69324 11.8706 6.46307 11.559 6.30731 11.2206C6.15166 10.8824 6.07255 10.5223 6.07255 10.1604" stroke="#383C47" stroke-width="1.12897" stroke-linejoin="round"/>
<path d="M4.34772 8.82987C4.34772 8.63298 4.38378 8.43893 4.45293 8.25916C4.52206 8.07942 4.62234 7.91887 4.74606 7.78564C4.86969 7.65249 5.01403 7.54946 5.16955 7.48009C5.32494 7.41078 5.48972 7.3758 5.65493 7.3758C5.82013 7.3758 5.98491 7.41078 6.1403 7.48009C6.29582 7.54946 6.44016 7.65249 6.56379 7.78564C6.68751 7.91887 6.78779 8.07942 6.85692 8.25916C6.92607 8.43893 6.96213 8.63298 6.96213 8.82987" stroke="#383C47" stroke-width="1.20424" stroke-linejoin="round"/>
<path d="M11.5806 8.82987C11.5806 8.63298 11.6167 8.43893 11.6858 8.25916C11.755 8.07942 11.8553 7.91887 11.979 7.78564C12.1026 7.65249 12.2469 7.54946 12.4025 7.48009C12.5578 7.41078 12.7226 7.3758 12.8878 7.3758C13.053 7.3758 13.2178 7.41078 13.3732 7.48009C13.5287 7.54946 13.6731 7.65249 13.7967 7.78564C13.9204 7.91887 14.0207 8.07942 14.0898 8.25916C14.159 8.43893 14.195 8.63298 14.195 8.82987" stroke="#383C47" stroke-width="1.20424" stroke-linejoin="round"/>
<path fill-rule="evenodd" clip-rule="evenodd" d="M17.6021 22.2884H1.33936V20.983H17.6021V22.2884Z" fill="#383C47"/>
<path d="M10.4427 24.3666C10.4427 25.0075 9.92324 25.527 9.2824 25.527C8.64157 25.527 8.12207 25.0075 8.12207 24.3666C8.12207 23.7258 8.64157 23.2063 9.2824 23.2063C9.92324 23.2063 10.4427 23.7258 10.4427 24.3666Z" fill="#383C47"/>
</svg>
