<svg width="25" height="21" viewBox="0 0 25 21" fill="none" xmlns="http://www.w3.org/2000/svg">
<path d="M10.2988 19.8235C10.2988 20.2377 10.6346 20.5735 11.0488 20.5735C11.463 20.5735 11.7988 20.2377 11.7988 19.8235H10.2988ZM10.2988 5.70532V19.8235H11.7988V5.70532H10.2988Z" fill="white"/>
<path d="M3.51505 6.2943L2.90495 2.50728C2.82526 2.0126 3.15096 1.54345 3.64228 1.44518V1.44518C5.0473 1.16418 6.50349 1.54519 7.59082 2.47833L8.71666 3.44451" stroke="white" stroke-width="1.5"/>
<path d="M17.6334 6.2943L18.1697 2.49755C18.2392 2.00567 17.9127 1.54505 17.4256 1.44762V1.44762C16.0129 1.16508 14.5487 1.54818 13.4554 2.48644L12.339 3.44451" stroke="white" stroke-width="1.5"/>
<path d="M13.8922 6.03385C13.8922 4.31846 12.5016 2.92786 10.7862 2.92786C9.07078 2.92786 7.68018 4.31846 7.68018 6.03385" stroke="white" stroke-width="1.5"/>
<path d="M0.75 9.38832C0.75 7.76847 2.06315 6.45532 3.68299 6.45532H17.4942C19.1141 6.45532 20.4272 7.76847 20.4272 9.38832V17.317C20.4272 18.9368 19.1141 20.25 17.4942 20.25H3.683C2.06315 20.25 0.75 18.9368 0.75 17.317V9.38832Z" stroke="white" stroke-width="1.5"/>
<circle cx="19.9126" cy="14.2104" r="4.21043" fill="white"/>
<path d="M19.4675 12.2506C19.6076 11.8196 20.2173 11.8196 20.3574 12.2506L20.5925 12.9743C20.6552 13.167 20.8348 13.2975 21.0375 13.2975H21.7984C22.2516 13.2975 22.44 13.8775 22.0734 14.1438L21.4578 14.5911C21.2938 14.7103 21.2252 14.9214 21.2878 15.1142L21.523 15.8379C21.663 16.2689 21.1697 16.6273 20.8031 16.3609L20.1874 15.9137C20.0235 15.7945 19.8014 15.7945 19.6375 15.9137L19.0219 16.3609C18.6552 16.6273 18.1619 16.2689 18.3019 15.8379L18.5371 15.1142C18.5997 14.9214 18.5311 14.7103 18.3671 14.5911L17.7515 14.1438C17.3849 13.8775 17.5733 13.2975 18.0265 13.2975H18.7875C18.9901 13.2975 19.1698 13.167 19.2324 12.9743L19.4675 12.2506Z" fill="#00B9EB"/>
</svg>
