<svg width="26" height="32" viewBox="0 0 26 32" fill="none" xmlns="http://www.w3.org/2000/svg">
<path d="M15.4912 16.8569C15.4912 17.2833 15.3979 17.7069 15.2151 18.1041C15.0323 18.5014 14.7626 18.8659 14.419 19.1751C14.0753 19.4844 13.6647 19.7321 13.2094 19.9018C12.7542 20.0715 12.2648 20.1594 11.7696 20.1594C11.2744 20.1594 10.785 20.0715 10.3297 19.9018C9.87451 19.7321 9.46386 19.4844 9.12014 19.1751C8.77653 18.8659 8.50692 18.5014 8.32405 18.1041C8.14126 17.7069 8.04802 17.2833 8.04802 16.8569" stroke="#57CDB1" stroke-width="0.938595" stroke-linejoin="round"/>
<path d="M6.11582 15.3746C6.11582 15.1346 6.15974 14.8978 6.2443 14.678C6.32886 14.4581 6.45193 14.2607 6.60483 14.096C6.75766 13.9314 6.93707 13.803 7.13175 13.7162C7.32632 13.6294 7.53339 13.5853 7.74151 13.5853C7.94963 13.5853 8.15671 13.6294 8.35128 13.7162C8.54596 13.803 8.72536 13.9314 8.87819 14.096C9.03109 14.2607 9.15417 14.4581 9.23872 14.678C9.32329 14.8978 9.36721 15.1346 9.36721 15.3746" stroke="#57CDB1" stroke-width="1.00117" stroke-linejoin="round"/>
<path d="M14.1715 15.3746C14.1715 15.1346 14.2154 14.8978 14.3 14.678C14.3845 14.4581 14.5076 14.2607 14.6605 14.096C14.8133 13.9314 14.9927 13.803 15.1874 13.7162C15.382 13.6294 15.5891 13.5853 15.7972 13.5853C16.0053 13.5853 16.2124 13.6294 16.4069 13.7162C16.6016 13.803 16.781 13.9314 16.9339 14.096C17.0868 14.2607 17.2098 14.4581 17.2944 14.678C17.379 14.8978 17.4229 15.1346 17.4229 15.3746" stroke="#57CDB1" stroke-width="1.00117" stroke-linejoin="round"/>
<path fill-rule="evenodd" clip-rule="evenodd" d="M24.0768 11.277C24.0768 11.1665 23.9872 11.077 23.8768 11.077H22.846V13.5385H23.8768C23.9872 13.5385 24.0768 13.449 24.0768 13.3385V11.277ZM21.6152 9.84619V14.7693H24.0768C24.7565 14.7693 25.3075 14.2182 25.3075 13.5385V11.077C25.3075 10.3972 24.7565 9.84619 24.0768 9.84619H21.6152Z" fill="#004FB9"/>
<path fill-rule="evenodd" clip-rule="evenodd" d="M24.0768 18.6615C24.0768 18.551 23.9872 18.4615 23.8768 18.4615H22.846V20.923H23.8768C23.9872 20.923 24.0768 20.8335 24.0768 20.723V18.6615ZM21.6152 17.2307V22.1538H24.0768C24.7565 22.1538 25.3075 21.6028 25.3075 20.923V18.4615C25.3075 17.7817 24.7565 17.2307 24.0768 17.2307H21.6152Z" fill="#004FB9"/>
<path fill-rule="evenodd" clip-rule="evenodd" d="M4.15392 6.15386C3.00687 6.15386 2.077 6.98041 2.077 8.00002V14.7902C2.077 15.13 1.76704 15.4056 1.38469 15.4056C1.00234 15.4056 0.692383 15.13 0.692383 14.7902V8.00002C0.692383 6.30068 2.24217 4.9231 4.15392 4.9231H19.3847C21.2964 4.9231 22.8462 6.30068 22.8462 8.00002V24C22.8462 25.6994 21.2964 27.0769 19.3847 27.0769H4.15392C2.24217 27.0769 0.692383 25.6994 0.692383 24V22.0492C0.692383 21.7093 1.00234 21.4338 1.38469 21.4338C1.76704 21.4338 2.077 21.7093 2.077 22.0492V24C2.077 25.0196 3.00687 25.8462 4.15392 25.8462H19.3847C20.5317 25.8462 21.4616 25.0196 21.4616 24V8.00002C21.4616 6.98042 20.5317 6.15386 19.3847 6.15386H4.15392Z" fill="#004FB9"/>
<mask id="path-7-inside-1_58_1870" fill="white">
<path d="M4.38477 25.8462H19.154L18.0451 30.4668C17.8292 31.366 17.0251 32 16.1003 32H7.43848C6.51371 32 5.70953 31.366 5.49371 30.4668L4.38477 25.8462Z"/>
</mask>
<path d="M4.38477 25.8462V24.8462H3.11637L3.41238 26.0796L4.38477 25.8462ZM19.154 25.8462L20.1264 26.0796L20.4224 24.8462H19.154V25.8462ZM18.0451 30.4668L17.0727 30.2334L18.0451 30.4668ZM4.38477 26.8462H19.154V24.8462H4.38477V26.8462ZM18.1816 25.6128L17.0727 30.2334L19.0174 30.7002L20.1264 26.0796L18.1816 25.6128ZM16.1003 31H7.43848V33H16.1003V31ZM6.46609 30.2334L5.35715 25.6128L3.41238 26.0796L4.52132 30.7002L6.46609 30.2334ZM7.43848 31C6.97609 31 6.574 30.683 6.46609 30.2334L4.52132 30.7002C4.84505 32.049 6.05132 33 7.43848 33V31ZM17.0727 30.2334C16.9648 30.683 16.5627 31 16.1003 31V33C17.4874 33 18.6937 32.049 19.0174 30.7002L17.0727 30.2334Z" fill="#004FB9" mask="url(#path-7-inside-1_58_1870)"/>
<mask id="path-9-inside-2_58_1870" fill="white">
<path d="M19.1538 6.15381L4.38458 6.15381L5.49352 1.53321C5.70934 0.633975 6.51352 -3.87752e-05 7.43829 -3.86943e-05L16.1001 -3.79371e-05C17.0249 -3.78563e-05 17.829 0.633977 18.0449 1.53322L19.1538 6.15381Z"/>
</mask>
<path d="M19.1538 6.15381L19.1538 7.15381L20.4222 7.15381L20.1262 5.92044L19.1538 6.15381ZM4.38458 6.15381L3.41219 5.92043L3.11618 7.15381L4.38458 7.15381L4.38458 6.15381ZM5.49352 1.53321L6.46591 1.76659L5.49352 1.53321ZM19.1538 5.15381L4.38458 5.15381L4.38458 7.15381L19.1538 7.15381L19.1538 5.15381ZM5.35697 6.38718L6.46591 1.76659L4.52113 1.29984L3.41219 5.92043L5.35697 6.38718ZM7.43829 0.999961L16.1001 0.999962L16.1001 -1.00004L7.4383 -1.00004L7.43829 0.999961ZM17.0725 1.76659L18.1814 6.38718L20.1262 5.92044L19.0173 1.29984L17.0725 1.76659ZM16.1001 0.999962C16.5625 0.999962 16.9646 1.31697 17.0725 1.76659L19.0173 1.29984C18.6935 -0.0490146 17.4873 -1.00004 16.1001 -1.00004L16.1001 0.999962ZM6.46591 1.76659C6.57382 1.31697 6.97591 0.999961 7.43829 0.999961L7.4383 -1.00004C6.05113 -1.00004 4.84486 -0.0490177 4.52113 1.29984L6.46591 1.76659Z" fill="#004FB9" mask="url(#path-9-inside-2_58_1870)"/>
</svg>
