<svg width="28" height="27" viewBox="0 0 28 27" fill="none" xmlns="http://www.w3.org/2000/svg">
<path d="M28 13.4206C28 9.83568 26.5437 6.46328 23.9007 3.92968C21.2577 1.39607 17.7397 0 14 0C10.2603 0 6.74229 1.39607 4.09932 3.92968C1.45634 6.46328 0 9.83568 0 13.4206V19.7748C0 23.3655 3.05051 26.2898 6.79623 26.2898C7.24572 26.2898 7.60531 25.9451 7.60531 25.5142V14.0411C7.60531 13.6102 7.24572 13.2655 6.79623 13.2655C4.7226 13.2655 2.86473 14.156 1.61815 15.5636V13.4206C1.61815 6.87693 7.1738 1.55119 14 1.55119C20.8262 1.55119 26.3818 6.87693 26.3818 13.4206C26.3818 13.4724 26.3878 13.5241 26.3998 13.5758C26.3878 13.6275 26.3818 13.6792 26.3818 13.7309V15.8738C25.1353 14.4663 23.2774 13.5758 21.2038 13.5758C20.7543 13.5758 20.3947 13.9205 20.3947 14.3514V25.8244C20.3947 26.2553 20.7543 26.6 21.2038 26.6C24.9495 26.6 28 23.6757 28 20.085V13.7309C28 13.6792 27.994 13.6275 27.982 13.5758C27.994 13.5241 28 13.4724 28 13.4206ZM5.98116 14.8742V24.6754C3.51199 24.3019 1.61216 22.2452 1.61216 19.7748C1.61815 17.3044 3.51199 15.2476 5.98116 14.8742ZM22.0188 24.9856V15.1844C24.488 15.5578 26.3878 17.6146 26.3878 20.085C26.3818 22.5612 24.488 24.6122 22.0188 24.9856Z" fill="#004FB9"/>
</svg>
