<svg width="35" height="29" viewBox="0 0 35 29" fill="none" xmlns="http://www.w3.org/2000/svg">
<path fill-rule="evenodd" clip-rule="evenodd" d="M25.113 1.35497H9.45555C9.20611 1.35497 9.00389 1.55718 9.00389 1.80663V24.3894C9.00389 26.1355 10.4194 27.551 12.1655 27.551H22.403C24.1491 27.551 25.5646 26.1355 25.5646 24.3894V1.80663C25.5646 1.55718 25.3624 1.35497 25.113 1.35497ZM9.45555 0C8.45778 0 7.64893 0.808854 7.64893 1.80663V24.3894C7.64893 26.8839 9.67106 28.906 12.1655 28.906H22.403C24.8975 28.906 26.9196 26.8839 26.9196 24.3894V1.80663C26.9196 0.808854 26.1107 0 25.113 0H9.45555Z" fill="#383C47"/>
<path fill-rule="evenodd" clip-rule="evenodd" d="M25.9182 23.1354H9.03754V21.7804H25.9182V23.1354Z" fill="#383C47"/>
<path d="M18.4885 25.2923C18.4885 25.9575 17.9492 26.4967 17.2841 26.4967C16.6189 26.4967 16.0797 25.9575 16.0797 25.2923C16.0797 24.6271 16.6189 24.0879 17.2841 24.0879C17.9492 24.0879 18.4885 24.6271 18.4885 25.2923Z" fill="#383C47"/>
<path fill-rule="evenodd" clip-rule="evenodd" d="M5.06684 11.7555C5.17985 12.1122 4.98231 12.493 4.62562 12.606C3.37161 13.0033 1.35515 14.5851 1.35515 17.3222C1.35515 20.2265 3.73811 21.8145 5.18423 22.0911C5.55172 22.1614 5.79265 22.5163 5.72235 22.8838C5.65204 23.2513 5.29713 23.4923 4.92963 23.4219C3.05155 23.0627 0.000183105 21.0663 0.000183105 17.3222C0.000183105 13.8495 2.55087 11.842 4.21637 11.3143C4.57306 11.2013 4.95383 11.3988 5.06684 11.7555Z" fill="#383C47"/>
<path fill-rule="evenodd" clip-rule="evenodd" d="M1.91686 10.3689C2.06119 10.0236 2.45803 9.86079 2.80324 10.0051L5.36142 11.0746C5.67455 11.2056 5.8425 11.548 5.75432 11.8757L4.98831 14.7229C4.89111 15.0843 4.5194 15.2984 4.15808 15.2012C3.79677 15.104 3.58266 14.7322 3.67987 14.3709L4.29188 12.0961L2.2806 11.2552C1.93539 11.1109 1.77254 10.7141 1.91686 10.3689Z" fill="#383C47"/>
<path fill-rule="evenodd" clip-rule="evenodd" d="M29.4432 17.1085C29.3302 16.7518 29.5277 16.371 29.8844 16.258C31.1384 15.8607 33.1549 14.2789 33.1549 11.5418C33.1549 8.63754 30.7719 7.04955 29.3258 6.7729C28.9583 6.7026 28.7174 6.34769 28.7877 5.98019C28.858 5.61269 29.2129 5.37176 29.5804 5.44207C31.4585 5.80135 34.5098 7.7977 34.5098 11.5418C34.5098 15.0145 31.9591 17.022 30.2936 17.5497C29.9369 17.6627 29.5562 17.4652 29.4432 17.1085Z" fill="#383C47"/>
<path fill-rule="evenodd" clip-rule="evenodd" d="M32.593 18.4946C32.4486 18.8398 32.0518 19.0026 31.7066 18.8583L29.1484 17.7888C28.8353 17.6578 28.6673 17.3154 28.7555 16.9877L29.5215 14.1405C29.6187 13.7791 29.9904 13.565 30.3517 13.6622C30.7131 13.7594 30.9272 14.1312 30.83 14.4925L30.2179 16.7673L32.2292 17.6082C32.5744 17.7525 32.7373 18.1493 32.593 18.4946Z" fill="#383C47"/>
<path d="M20.7661 10.5464C20.7661 10.9221 20.684 11.2958 20.5224 11.6468C20.3608 11.9981 20.1218 12.3215 19.816 12.5968C19.51 12.8722 19.1435 13.0935 18.736 13.2454C18.3285 13.3973 17.89 13.4761 17.4458 13.4761C17.0017 13.4761 16.5632 13.3973 16.1557 13.2454C15.7482 13.0935 15.3817 12.8722 15.0757 12.5968C14.7698 12.3215 14.5309 11.9981 14.3692 11.6468C14.2077 11.2958 14.1256 10.9221 14.1256 10.5464" stroke="#383C47" stroke-width="1.17186" stroke-linejoin="round"/>
<circle cx="13.3589" cy="8.20445" r="1.17186" fill="#383C47"/>
<circle cx="21.1714" cy="8.20262" r="1.17186" fill="#383C47"/>
</svg>
