<svg width="26" height="32" viewBox="0 0 26 32" fill="none" xmlns="http://www.w3.org/2000/svg">
<path d="M15.4912 16.8569C15.4912 17.2833 15.3979 17.7069 15.2151 18.1041C15.0323 18.5014 14.7626 18.8659 14.419 19.1751C14.0753 19.4844 13.6647 19.7321 13.2094 19.9018C12.7542 20.0715 12.2648 20.1594 11.7696 20.1594C11.2744 20.1594 10.785 20.0715 10.3297 19.9018C9.87451 19.7321 9.46386 19.4844 9.12014 19.1751C8.77653 18.8659 8.50692 18.5014 8.32405 18.1041C8.14126 17.7069 8.04802 17.2833 8.04802 16.8569" stroke="#383C47" stroke-width="0.938595" stroke-linejoin="round"/>
<path d="M6.1157 15.3746C6.1157 15.1346 6.15961 14.8978 6.24418 14.678C6.32874 14.4581 6.45181 14.2607 6.60471 14.096C6.75754 13.9314 6.93695 13.803 7.13163 13.7162C7.32619 13.6294 7.53327 13.5853 7.74139 13.5853C7.94951 13.5853 8.15659 13.6294 8.35115 13.7162C8.54584 13.803 8.72524 13.9314 8.87807 14.096C9.03097 14.2607 9.15404 14.4581 9.2386 14.678C9.32317 14.8978 9.36709 15.1346 9.36709 15.3746" stroke="#383C47" stroke-width="1.00117" stroke-linejoin="round"/>
<path d="M14.1714 15.3746C14.1714 15.1346 14.2153 14.8978 14.2998 14.678C14.3844 14.4581 14.5075 14.2607 14.6604 14.096C14.8132 13.9314 14.9926 13.803 15.1873 13.7162C15.3819 13.6294 15.5889 13.5853 15.7971 13.5853C16.0052 13.5853 16.2123 13.6294 16.4068 13.7162C16.6015 13.803 16.7809 13.9314 16.9337 14.096C17.0866 14.2607 17.2097 14.4581 17.2943 14.678C17.3788 14.8978 17.4227 15.1346 17.4227 15.3746" stroke="#383C47" stroke-width="1.00117" stroke-linejoin="round"/>
<path fill-rule="evenodd" clip-rule="evenodd" d="M24.0768 11.277C24.0768 11.1665 23.9872 11.077 23.8768 11.077H22.846V13.5385H23.8768C23.9872 13.5385 24.0768 13.449 24.0768 13.3385V11.277ZM21.6152 9.84619V14.7693H24.0768C24.7565 14.7693 25.3075 14.2182 25.3075 13.5385V11.077C25.3075 10.3972 24.7565 9.84619 24.0768 9.84619H21.6152Z" fill="#383C47"/>
<path fill-rule="evenodd" clip-rule="evenodd" d="M24.0768 18.6615C24.0768 18.551 23.9872 18.4615 23.8768 18.4615H22.846V20.923H23.8768C23.9872 20.923 24.0768 20.8335 24.0768 20.723V18.6615ZM21.6152 17.2307V22.1538H24.0768C24.7565 22.1538 25.3075 21.6028 25.3075 20.923V18.4615C25.3075 17.7817 24.7565 17.2307 24.0768 17.2307H21.6152Z" fill="#383C47"/>
<path fill-rule="evenodd" clip-rule="evenodd" d="M4.15368 6.15386C3.00662 6.15386 2.07675 6.98041 2.07675 8.00002V14.7902C2.07675 15.13 1.7668 15.4056 1.38445 15.4056C1.0021 15.4056 0.692139 15.13 0.692139 14.7902V8.00002C0.692139 6.30068 2.24192 4.9231 4.15368 4.9231H19.3844C21.2962 4.9231 22.846 6.30068 22.846 8.00002V24C22.846 25.6994 21.2962 27.0769 19.3844 27.0769H4.15368C2.24192 27.0769 0.692139 25.6994 0.692139 24V22.0492C0.692139 21.7093 1.0021 21.4338 1.38445 21.4338C1.7668 21.4338 2.07675 21.7093 2.07675 22.0492V24C2.07675 25.0196 3.00662 25.8462 4.15368 25.8462H19.3844C20.5315 25.8462 21.4614 25.0196 21.4614 24V8.00002C21.4614 6.98042 20.5315 6.15386 19.3844 6.15386H4.15368Z" fill="#383C47"/>
<path d="M5.97978 30.3501L5.01884 26.3462H18.5197L17.5587 30.3501C17.3969 31.0245 16.7937 31.5 16.1002 31.5H7.43836C6.74478 31.5 6.14164 31.0245 5.97978 30.3501Z" stroke="#383C47"/>
<path d="M17.5587 1.6499L18.5196 5.65381L5.01878 5.65381L5.97971 1.6499C6.14158 0.975472 6.74471 0.499961 7.43829 0.499961L16.1001 0.499962C16.7937 0.499962 17.3968 0.975472 17.5587 1.6499Z" stroke="#383C47"/>
</svg>
