<svg width="17" height="17" viewBox="0 0 17 17" fill="none" xmlns="http://www.w3.org/2000/svg">
<path d="M8.27246 16.0305C12.6907 16.0305 16.2725 12.4488 16.2725 8.03052C16.2725 3.61224 12.6907 0.0305176 8.27246 0.0305176C3.85418 0.0305176 0.272461 3.61224 0.272461 8.03052C0.272461 12.4488 3.85418 16.0305 8.27246 16.0305Z" fill="url(#paint0_linear)"/>
<path d="M6.95626 7.83454C6.95626 7.15899 7.50737 6.60787 8.18293 6.60787C8.85849 6.60787 9.4096 7.15899 9.4096 7.83454C9.4096 8.5101 8.85849 9.06121 8.18293 9.06121C7.50737 9.06121 6.95626 8.52787 6.95626 7.83454ZM6.29849 7.83454C6.29849 8.88343 7.15182 9.73676 8.20071 9.73676C9.2496 9.73676 10.1029 8.88343 10.1029 7.83454C10.1029 6.78565 9.2496 5.93232 8.20071 5.93232C7.15182 5.93232 6.29849 6.80343 6.29849 7.83454ZM9.71182 5.87899C9.71182 6.12787 9.90737 6.32343 10.1563 6.32343C10.4052 6.32343 10.6007 6.12787 10.6007 5.87899C10.6007 5.6301 10.4052 5.43454 10.1563 5.43454C9.90737 5.43454 9.71182 5.6301 9.71182 5.87899ZM6.6896 10.839C6.33404 10.8212 6.13849 10.7679 5.99626 10.7145C5.81849 10.6434 5.69404 10.5723 5.5696 10.4301C5.44515 10.3057 5.35626 10.1812 5.28515 10.0034C5.23182 9.87899 5.17849 9.68343 5.16071 9.3101C5.14293 8.91899 5.14293 8.81232 5.14293 7.81676C5.14293 6.82121 5.14293 6.71454 5.16071 6.32343C5.17849 5.96787 5.23182 5.77232 5.28515 5.6301C5.35626 5.45232 5.42737 5.32787 5.5696 5.20343C5.69404 5.07899 5.81849 4.9901 5.99626 4.91899C6.12071 4.86565 6.31626 4.81232 6.6896 4.79454C7.08071 4.77676 7.18737 4.77676 8.18293 4.77676C9.16071 4.77676 9.28515 4.77676 9.67626 4.79454C10.0318 4.81232 10.2274 4.86565 10.3696 4.91899C10.5474 4.9901 10.6718 5.06121 10.7963 5.20343C10.9207 5.32787 11.0096 5.45232 11.0807 5.6301C11.134 5.75454 11.1874 5.9501 11.2052 6.32343C11.2229 6.71454 11.2229 6.82121 11.2229 7.81676C11.2229 8.79454 11.2229 8.91899 11.2052 9.3101C11.1874 9.66565 11.134 9.86121 11.0807 10.0034C11.0096 10.1812 10.9385 10.3057 10.7963 10.4301C10.6718 10.5545 10.5474 10.6434 10.3696 10.7145C10.2452 10.7679 10.0496 10.8212 9.67626 10.839C9.28515 10.8568 9.17848 10.8568 8.18293 10.8568C7.20515 10.8745 7.08071 10.8568 6.6896 10.839ZM6.67182 4.17232C6.28071 4.1901 6.01404 4.26121 5.78293 4.3501C5.53404 4.43899 5.33849 4.56343 5.12515 4.77676C4.91182 4.9901 4.78737 5.18565 4.69849 5.43454C4.6096 5.66565 4.53849 5.93232 4.52071 6.32343C4.50293 6.71454 4.50293 6.83899 4.50293 7.85232C4.50293 8.86565 4.50293 8.97232 4.52071 9.38121C4.53849 9.77232 4.6096 10.039 4.69849 10.2701C4.78737 10.519 4.91182 10.7145 5.12515 10.9279C5.33849 11.1412 5.53404 11.2657 5.78293 11.3545C6.01404 11.4434 6.28071 11.5145 6.67182 11.5323C7.06293 11.5501 7.18737 11.5501 8.20071 11.5501C9.19626 11.5501 9.32071 11.5501 9.7296 11.5323C10.1207 11.5145 10.3874 11.4434 10.6185 11.3545C10.8674 11.2657 11.0629 11.1412 11.2763 10.9279C11.4896 10.7145 11.614 10.519 11.7029 10.2701C11.7918 10.039 11.8629 9.77232 11.8807 9.38121C11.8985 8.9901 11.8985 8.86565 11.8985 7.85232C11.8985 6.83899 11.8985 6.73232 11.8807 6.32343C11.8629 5.93232 11.7918 5.66565 11.7029 5.43454C11.614 5.18565 11.4896 4.9901 11.2763 4.77676C11.0629 4.56343 10.8674 4.43899 10.6185 4.3501C10.3874 4.26121 10.1207 4.1901 9.7296 4.17232C9.33849 4.15454 9.21404 4.15454 8.20071 4.15454C7.18737 4.15454 7.06293 4.15454 6.67182 4.17232Z" fill="white"/>
<defs>
<linearGradient id="paint0_linear" x1="12.2731" y1="1.10115" x2="4.27179" y2="14.9599" gradientUnits="userSpaceOnUse">
<stop stop-color="#A23DB5"/>
<stop offset="0.51" stop-color="#CB3E8A"/>
<stop offset="1" stop-color="#F38A5A"/>
</linearGradient>
</defs>
</svg>
