<svg width="22" height="33" viewBox="0 0 22 33" fill="none" xmlns="http://www.w3.org/2000/svg">
<path fill-rule="evenodd" clip-rule="evenodd" d="M19.9084 2.12667H2.5557C2.27925 2.12667 2.05514 2.35078 2.05514 2.62723V27.6551C2.05514 29.5903 3.6239 31.159 5.55905 31.159H16.905C18.8402 31.159 20.4089 29.5903 20.4089 27.6551V2.62723C20.4089 2.35078 20.1848 2.12667 19.9084 2.12667ZM2.5557 0.625C1.4499 0.625 0.553467 1.52143 0.553467 2.62723V27.6551C0.553467 30.4196 2.79455 32.6607 5.55905 32.6607H16.905C19.6695 32.6607 21.9106 30.4196 21.9106 27.6551V2.62723C21.9106 1.52143 21.0142 0.625 19.9084 0.625H2.5557Z" fill="#004FB9"/>
<path fill-rule="evenodd" clip-rule="evenodd" d="M20.8019 26.2651H2.09351V24.7634H20.8019V26.2651Z" fill="#004FB9"/>
<path d="M14.9741 10.5753C14.8255 10.4866 14.6027 10.5162 14.4542 10.6048L13.6002 11.2256C13.4517 11.3143 13.4888 11.4916 13.6373 11.5507C13.6373 11.5507 14.9741 12.3193 14.9741 14.0042C14.9741 15.5708 13.5631 16.4871 13.5631 16.4871C13.4145 16.5758 13.4145 16.7236 13.5631 16.8418L14.38 17.4626C14.5285 17.5513 14.7513 17.5808 14.8998 17.4921C14.8998 17.4921 16.9049 16.3985 16.9049 14.0042C16.9049 11.6394 14.9741 10.5753 14.9741 10.5753Z" fill="#5CDEB1"/>
<path d="M7.86758 14.6524C7.86758 14.6524 7.64621 14.6215 7.64621 14.8071C7.64621 15.766 8.37355 16.4156 9.51198 16.4156C10.3658 16.4156 10.7137 16.23 11.2196 15.8588C11.3461 15.766 11.4726 15.7041 11.5675 15.7969C11.6307 15.8588 12.5162 16.6631 12.5162 16.6631C12.6427 16.7559 12.6111 16.8796 12.4846 16.9724C12.3581 17.0652 11.0299 18.086 9.51198 18.086C7.4881 18.086 5.55908 17.2199 5.55908 14.0337C5.55908 11.4353 7.04537 9.98145 9.259 9.98145C11.6307 9.98145 12.9589 11.59 12.9589 13.7553V14.3121C12.9589 14.5287 12.7692 14.6524 12.6111 14.6524H7.86758ZM10.682 12.4561C10.4607 11.9921 9.98633 11.6209 9.259 11.6209C8.53166 11.6209 8.05732 11.9612 7.83595 12.4561C7.70946 12.7345 7.64621 12.9511 7.64621 13.3223H10.8718C10.8402 12.9511 10.8085 12.7345 10.682 12.4561Z" fill="#5CDEB1"/>
<path d="M12.5678 28.6564C12.5678 29.3936 11.9702 29.9912 11.233 29.9912C10.4958 29.9912 9.89819 29.3936 9.89819 28.6564C9.89819 27.9192 10.4958 27.3215 11.233 27.3215C11.9702 27.3215 12.5678 27.9192 12.5678 28.6564Z" fill="#004FB9"/>
</svg>
