<svg width="26" height="34" viewBox="0 0 26 34" fill="none" xmlns="http://www.w3.org/2000/svg">
<path d="M14.9956 6.98508C14.9045 6.9376 14.8032 6.91281 14.7005 6.91281C14.5978 6.91281 14.4965 6.9376 14.4054 6.98508L13.438 7.68165C13.4031 7.69807 13.3736 7.72407 13.3529 7.75662C13.3323 7.78917 13.3213 7.82692 13.3213 7.86547C13.3213 7.90402 13.3323 7.94177 13.3529 7.97432C13.3736 8.00687 13.4031 8.03287 13.438 8.04929C13.8963 8.34447 14.2736 8.74957 14.5355 9.22775C14.7974 9.70592 14.9356 10.242 14.9375 10.7872C14.9021 11.3403 14.7407 11.878 14.4657 12.3592C14.1907 12.8404 13.8094 13.2524 13.3509 13.5638C13.1864 13.6605 13.1864 13.8347 13.3509 13.9605L14.3183 14.657C14.4069 14.707 14.5069 14.7333 14.6086 14.7333C14.7103 14.7333 14.8103 14.707 14.8988 14.657C15.5698 14.2545 16.1276 13.6884 16.5202 13.0116C16.9127 12.3348 17.1271 11.5694 17.1433 10.7872C17.1349 10.0238 16.9336 9.27485 16.5581 8.6101C16.1826 7.94535 15.6451 7.38635 14.9956 6.98508Z" fill="#5CDEB1"/>
<path d="M7.04308 11.5419C7.04308 11.5419 6.80121 11.5419 6.80121 11.716C6.80031 11.9783 6.85558 12.2378 6.9633 12.4771C7.07103 12.7163 7.22871 12.9297 7.42575 13.1029C7.62279 13.2761 7.85463 13.4051 8.10568 13.4813C8.35673 13.5575 8.62118 13.579 8.88125 13.5445C9.58164 13.5929 10.274 13.3713 10.8162 12.9253C10.9516 12.8189 11.0967 12.7512 11.2031 12.8479C11.3096 12.9447 12.2577 13.8154 12.2577 13.8154C12.4028 13.9121 12.3641 14.0572 12.2577 14.154C11.2818 14.8946 10.1049 15.3229 8.88125 15.3827C6.61739 15.3827 4.45996 14.4152 4.45996 10.855C4.45996 7.95258 6.12399 6.31757 8.60069 6.31757C9.15987 6.28404 9.71974 6.3708 10.2425 6.572C10.7654 6.7732 11.2389 7.08417 11.6314 7.48393C12.0238 7.8837 12.3259 8.36296 12.5174 8.8894C12.7089 9.41585 12.7853 9.97723 12.7414 10.5357V11.1645C12.7402 11.2154 12.7289 11.2654 12.7083 11.3119C12.6877 11.3584 12.6581 11.4003 12.6213 11.4354C12.5844 11.4704 12.541 11.4979 12.4936 11.5161C12.4462 11.5344 12.3956 11.5431 12.3447 11.5419H7.04308ZM10.1873 9.08451C10.0491 8.78372 9.82427 8.531 9.54163 8.35866C9.259 8.18632 8.93139 8.1022 8.60069 8.11705C8.26768 8.09616 7.93625 8.17766 7.6509 8.35059C7.36556 8.52353 7.13995 8.77963 7.00438 9.08451C6.86269 9.38692 6.79314 9.7181 6.80121 10.052H10.4002C10.3956 9.71837 10.3232 9.3892 10.1873 9.08451Z" fill="#5CDEB1"/>
<path fill-rule="evenodd" clip-rule="evenodd" d="M19.5814 0H2.02199C1.48651 0.0025439 0.973684 0.216391 0.595038 0.595038C0.216391 0.973684 0.0025439 1.48651 0 2.02199L0 27.3501C-1.2161e-06 28.0153 0.131195 28.6741 0.386079 29.2886C0.640963 29.9031 1.01453 30.4613 1.4854 30.9313C1.95628 31.4013 2.51521 31.7738 3.13021 32.0275C3.74521 32.2812 4.40421 32.4111 5.06948 32.4099H11.6095C11.7164 32.422 11.8247 32.4113 11.9273 32.3787C12.0298 32.346 12.1243 32.2921 12.2045 32.2204C12.2848 32.1487 12.349 32.0609 12.393 31.9627C12.4369 31.8644 12.4597 31.758 12.4597 31.6504C12.4597 31.5428 12.4369 31.4364 12.393 31.3382C12.349 31.24 12.2848 31.1521 12.2045 31.0804C12.1243 31.0087 12.0298 30.9548 11.9273 30.9222C11.8247 30.8895 11.7164 30.8789 11.6095 30.891H5.06948C4.60367 30.8922 4.14219 30.8016 3.71147 30.6242C3.28075 30.4468 2.88926 30.1862 2.55943 29.8573C2.22961 29.5284 1.96792 29.1376 1.78937 28.7073C1.61082 28.2771 1.51891 27.8159 1.51891 27.3501V2.02199C1.51891 1.88856 1.57191 1.7606 1.66626 1.66626C1.7606 1.57191 1.88856 1.51891 2.02199 1.51891H19.5814C19.6482 1.51762 19.7147 1.52969 19.7769 1.55439C19.839 1.5791 19.8956 1.61595 19.9434 1.66279C19.9911 1.70964 20.029 1.76553 20.0549 1.82721C20.0808 1.88888 20.0941 1.9551 20.0941 2.02199V17.1821C20.0902 17.2239 20.0902 17.266 20.0941 17.3078C20.1168 17.4055 20.1587 17.4976 20.2174 17.5789C20.2761 17.6602 20.3504 17.729 20.436 17.7812C20.5215 17.8334 20.6166 17.8681 20.7157 17.8832C20.8149 17.8982 20.916 17.8934 21.0132 17.869C21.177 17.8267 21.3225 17.7319 21.4273 17.5991C21.5322 17.4663 21.5906 17.3029 21.5937 17.1337V2.02199C21.5912 1.48817 21.3787 0.976792 21.0021 0.598418C20.6255 0.220043 20.1152 0.0050781 19.5814 0Z" fill="#004FB9"/>
<path fill-rule="evenodd" clip-rule="evenodd" d="M12.3255 25.1539C12.3255 25.2539 12.3056 25.3528 12.2671 25.445C12.2286 25.5372 12.1721 25.6208 12.101 25.691C12.0299 25.7612 11.9456 25.8166 11.8529 25.8539C11.7602 25.8913 11.6611 25.9098 11.5612 25.9086H1.01587V24.4187H11.6095C11.7988 24.4306 11.9769 24.5124 12.1093 24.6483C12.2416 24.7842 12.3186 24.9644 12.3255 25.1539Z" fill="#004FB9"/>
<path d="M12.1512 28.3562C12.1531 28.6249 12.0751 28.8881 11.927 29.1123C11.7789 29.3365 11.5675 29.5116 11.3196 29.6153C11.0717 29.719 10.7986 29.7467 10.535 29.6947C10.2713 29.6428 10.0291 29.5136 9.83909 29.3236C9.64909 29.1336 9.51989 28.8913 9.46794 28.6277C9.41599 28.3641 9.44363 28.0909 9.54734 27.8431C9.65105 27.5952 9.82615 27.3837 10.0504 27.2356C10.2746 27.0876 10.5378 27.0095 10.8065 27.0114C11.1623 27.014 11.5029 27.1564 11.7546 27.4081C12.0062 27.6597 12.1487 28.0003 12.1512 28.3562Z" fill="#004FB9"/>
<path fill-rule="evenodd" clip-rule="evenodd" d="M15.079 33.8611C14.6874 33.8611 14.3119 33.7036 14.035 33.4234C13.7581 33.1432 13.6025 32.7632 13.6025 32.3669V20.8434C13.6025 20.4471 13.7581 20.067 14.035 19.7868C14.3119 19.5066 14.6874 19.3492 15.079 19.3492H21.5209C21.9019 19.3563 22.2649 19.5143 22.5322 19.7892L24.7772 22.051C25.0437 22.325 25.1988 22.6902 25.212 23.0744V32.285C25.2094 32.6822 25.0516 33.0623 24.7731 33.3422C24.4946 33.6221 24.118 33.7792 23.7255 33.7792L15.079 33.8611ZM15.079 20.608C15.0181 20.6105 14.9604 20.6361 14.9173 20.6797C14.8742 20.7233 14.8489 20.7817 14.8464 20.8434V32.3669C14.8489 32.4285 14.8742 32.4869 14.9173 32.5305C14.9604 32.5742 15.0181 32.5998 15.079 32.6023H23.7659C23.8276 32.6023 23.8868 32.5775 23.9304 32.5333C23.974 32.4892 23.9985 32.4293 23.9985 32.3669V23.1562C23.9997 23.1253 23.994 23.0945 23.9817 23.0661C23.9694 23.0378 23.951 23.0126 23.9277 22.9925L21.6928 20.7205C21.646 20.6763 21.5849 20.6508 21.5209 20.6489L15.079 20.608Z" fill="#004FB9"/>
<path fill-rule="evenodd" clip-rule="evenodd" d="M16.2754 26.7515C16.071 26.7515 15.875 26.6704 15.7305 26.5259C15.5861 26.3814 15.5049 26.1854 15.5049 25.9811V22.022C15.5049 21.8177 15.5861 21.6217 15.7305 21.4772C15.875 21.3327 16.071 21.2515 16.2754 21.2515H20.2344C20.4388 21.2515 20.6347 21.3327 20.7792 21.4772C20.9237 21.6217 21.0049 21.8177 21.0049 22.022V25.9811C21.0049 26.1854 20.9237 26.3814 20.7792 26.5259C20.6347 26.6704 20.4388 26.7515 20.2344 26.7515H16.2754ZM20.2344 26.0166V24.8313H19.4047C19.3324 24.8313 19.263 24.86 19.2119 24.9111C19.1608 24.9622 19.132 25.0316 19.132 25.1039V25.9929L20.2344 26.0166ZM18.409 26.0166V25.1276C18.4121 24.8582 18.5204 24.6007 18.711 24.4102C18.9015 24.2197 19.159 24.1113 19.4284 24.1082H20.27V23.8948H19.4284C19.158 23.8948 18.8987 23.7874 18.7076 23.5963C18.5164 23.4051 18.409 23.1458 18.409 22.8754V21.9983H18.1008V22.8754C18.1008 23.1458 17.9934 23.4051 17.8022 23.5963C17.611 23.7874 17.3518 23.8948 17.0814 23.8948H16.2516V24.1675H17.0814C17.3508 24.1706 17.6083 24.2789 17.7988 24.4695C17.9893 24.66 18.0977 24.9175 18.1008 25.1869V26.0759L18.409 26.0166ZM16.2516 26.0166H17.3659V25.1276C17.3659 25.0908 17.3585 25.0543 17.344 25.0205C17.3296 24.9866 17.3085 24.956 17.2819 24.9305C17.2553 24.905 17.2238 24.8852 17.1894 24.8722C17.1549 24.8592 17.1182 24.8534 17.0814 24.855H16.2516V26.0166ZM19.1557 22.911C19.1541 22.9478 19.16 22.9845 19.173 23.019C19.186 23.0534 19.2058 23.0849 19.2313 23.1115C19.2568 23.1381 19.2874 23.1592 19.3212 23.1737C19.3551 23.1881 19.3916 23.1955 19.4284 23.1955H20.27V22.0101H19.1557V22.911ZM17.0814 23.1955C17.1568 23.1955 17.2292 23.1655 17.2826 23.1122C17.3359 23.0588 17.3659 22.9865 17.3659 22.911V22.0339H16.2754V23.2192L17.0814 23.1955Z" fill="#5CDEB1"/>
</svg>
